{
  "project_info": {
    "project_number": "356041343430",
    "firebase_url": "https://ecci-ci0161-mi-voz.firebaseio.com",
    "project_id": "ecci-ci0161-mi-voz",
    "storage_bucket": "ecci-ci0161-mi-voz.appspot.com"
  },
  "client": [
    {
      "client_info": {
        "mobilesdk_app_id": "1:356041343430:android:2c83685161cde82a14f2c7",
        "android_client_info": {
          "package_name": "cql.ecci.ucr.ac.cr.mivoz"
        }
      },
      "oauth_client": [
        {
          "client_id": "356041343430-egkron9d2bpbv65q8lacp783j9lf9r9c.apps.googleusercontent.com",
          "client_type": 3
        }
      ],
      "api_key": [
        {
          "current_key": "AIzaSyAfNC_Vaxji0t_yYIiC851NE4vBHRUB_Qs"
        }
      ],
      "services": {
        "appinvite_service": {
          "other_platform_oauth_client": [
            {
              "client_id": "356041343430-egkron9d2bpbv65q8lacp783j9lf9r9c.apps.googleusercontent.com",
              "client_type": 3
            }
          ]
        }
      }
    }
  ],
  "configuration_version": "1"
}